%YAML 1.1
%TAG !u! tag:unity3d.com,2011:
--- !u!1045 &1
EditorBuildSettings:
  m_ObjectHideFlags: 0
  serializedVersion: 2
  m_Scenes:
  - enabled: 0
    path: Assets/Scenes/TestGramaphone.unity
    guid: 57fe57be14820964c8de8b5113385b55
  - enabled: 0
    path: Assets/Scenes/RadioTest.unity
    guid: fef99ae1ec135db4da10e14726d0c588
  - enabled: 0
    path: Assets/Scenes/VirtualBtnsGramaphone.unity
    guid: 54f9d8df745cc9c4d90117ab04da19e0
  - enabled: 1
    path: Assets/Scenes/FINAL_SCENE.unity
    guid: 02adb55f7082c6a43bf881c767600169
  m_configObjects: {}
