[api-updater (non-obsolete-error-filter)] 3.6.2021. 16.11.18 : Starting C:/Program Files/Unity/Hub/Editor/2020.3.0f1/Editor/Data/Tools/ScriptUpdater/APIUpdater.NonObsoleteApiUpdaterDetector.exe
[api-updater (non-obsolete-error-filter)] 
----------------------------------
jit/startup time      : 56,1467ms
moved types parse time: 77ms
candidates parse time : 1ms
C# parse time         : 285ms
candidates check time : 48ms
console write time    : 0ms

[api-updater (non-obsolete-error-filter)] 3.6.2021. 16.14.30 : Starting C:/Program Files/Unity/Hub/Editor/2020.3.0f1/Editor/Data/Tools/ScriptUpdater/APIUpdater.NonObsoleteApiUpdaterDetector.exe
[api-updater (non-obsolete-error-filter)] 
----------------------------------
jit/startup time      : 91,24ms
moved types parse time: 59ms
candidates parse time : 1ms
C# parse time         : 206ms
candidates check time : 60ms
console write time    : 0ms

[api-updater (non-obsolete-error-filter)] 3.6.2021. 16.17.09 : Starting C:/Program Files/Unity/Hub/Editor/2020.3.0f1/Editor/Data/Tools/ScriptUpdater/APIUpdater.NonObsoleteApiUpdaterDetector.exe
[api-updater (non-obsolete-error-filter)] 
----------------------------------
jit/startup time      : 174,7167ms
moved types parse time: 74ms
candidates parse time : 1ms
C# parse time         : 241ms
candidates check time : 53ms
console write time    : 0ms

[api-updater (non-obsolete-error-filter)] 3.6.2021. 16.20.22 : Starting C:/Program Files/Unity/Hub/Editor/2020.3.0f1/Editor/Data/Tools/ScriptUpdater/APIUpdater.NonObsoleteApiUpdaterDetector.exe
[api-updater (non-obsolete-error-filter)] 
----------------------------------
jit/startup time      : 49,8886ms
moved types parse time: 74ms
candidates parse time : 1ms
C# parse time         : 232ms
candidates check time : 54ms
console write time    : 0ms

[api-updater (non-obsolete-error-filter)] 3.6.2021. 16.28.36 : Starting C:/Program Files/Unity/Hub/Editor/2020.3.0f1/Editor/Data/Tools/ScriptUpdater/APIUpdater.NonObsoleteApiUpdaterDetector.exe
[api-updater (non-obsolete-error-filter)] 
----------------------------------
jit/startup time      : 47,3648ms
moved types parse time: 60ms
candidates parse time : 1ms
C# parse time         : 202ms
candidates check time : 53ms
console write time    : 0ms

[api-updater (non-obsolete-error-filter)] 3.6.2021. 23.16.06 : Starting C:/Program Files/Unity/Hub/Editor/2020.3.0f1/Editor/Data/Tools/ScriptUpdater/APIUpdater.NonObsoleteApiUpdaterDetector.exe
[api-updater (non-obsolete-error-filter)] 
----------------------------------
jit/startup time      : 178,1378ms
moved types parse time: 84ms
candidates parse time : 1ms
C# parse time         : 389ms
candidates check time : 57ms
console write time    : 1ms

[api-updater (non-obsolete-error-filter)] 3.6.2021. 23.20.24 : Starting C:/Program Files/Unity/Hub/Editor/2020.3.0f1/Editor/Data/Tools/ScriptUpdater/APIUpdater.NonObsoleteApiUpdaterDetector.exe
[api-updater (non-obsolete-error-filter)] 
----------------------------------
jit/startup time      : 140,5994ms
moved types parse time: 64ms
candidates parse time : 1ms
C# parse time         : 221ms
candidates check time : 54ms
console write time    : 0ms

[api-updater (non-obsolete-error-filter)] 3.6.2021. 23.21.10 : Starting C:/Program Files/Unity/Hub/Editor/2020.3.0f1/Editor/Data/Tools/ScriptUpdater/APIUpdater.NonObsoleteApiUpdaterDetector.exe
[api-updater (non-obsolete-error-filter)] 
----------------------------------
jit/startup time      : 46,6961ms
moved types parse time: 57ms
candidates parse time : 1ms
C# parse time         : 194ms
candidates check time : 55ms
console write time    : 0ms

[api-updater (non-obsolete-error-filter)] 3.6.2021. 23.22.39 : Starting C:/Program Files/Unity/Hub/Editor/2020.3.0f1/Editor/Data/Tools/ScriptUpdater/APIUpdater.NonObsoleteApiUpdaterDetector.exe
[api-updater (non-obsolete-error-filter)] 
----------------------------------
jit/startup time      : 109,3494ms
moved types parse time: 62ms
candidates parse time : 1ms
C# parse time         : 235ms
candidates check time : 54ms
console write time    : 0ms

[api-updater (non-obsolete-error-filter)] 3.6.2021. 23.25.20 : Starting C:/Program Files/Unity/Hub/Editor/2020.3.0f1/Editor/Data/Tools/ScriptUpdater/APIUpdater.NonObsoleteApiUpdaterDetector.exe
[api-updater (non-obsolete-error-filter)] 
----------------------------------
jit/startup time      : 62,5036ms
moved types parse time: 56ms
candidates parse time : 1ms
C# parse time         : 195ms
candidates check time : 46ms
console write time    : 0ms

[api-updater (non-obsolete-error-filter)] 3.6.2021. 23.25.37 : Starting C:/Program Files/Unity/Hub/Editor/2020.3.0f1/Editor/Data/Tools/ScriptUpdater/APIUpdater.NonObsoleteApiUpdaterDetector.exe
[api-updater (non-obsolete-error-filter)] 
----------------------------------
jit/startup time      : 125,0146ms
moved types parse time: 74ms
candidates parse time : 1ms
C# parse time         : 197ms
candidates check time : 50ms
console write time    : 0ms

[api-updater (non-obsolete-error-filter)] 3.6.2021. 23.25.49 : Starting C:/Program Files/Unity/Hub/Editor/2020.3.0f1/Editor/Data/Tools/ScriptUpdater/APIUpdater.NonObsoleteApiUpdaterDetector.exe
[api-updater (non-obsolete-error-filter)] 
----------------------------------
jit/startup time      : 62,5032ms
moved types parse time: 63ms
candidates parse time : 1ms
C# parse time         : 231ms
candidates check time : 51ms
console write time    : 0ms

[api-updater (non-obsolete-error-filter)] 3.6.2021. 23.27.48 : Starting C:/Program Files/Unity/Hub/Editor/2020.3.0f1/Editor/Data/Tools/ScriptUpdater/APIUpdater.NonObsoleteApiUpdaterDetector.exe
[api-updater (non-obsolete-error-filter)] 
----------------------------------
jit/startup time      : 156,3023ms
moved types parse time: 56ms
candidates parse time : 1ms
C# parse time         : 194ms
candidates check time : 46ms
console write time    : 0ms

[api-updater (non-obsolete-error-filter)] 4.6.2021. 00.08.43 : Starting C:/Program Files/Unity/Hub/Editor/2020.3.0f1/Editor/Data/Tools/ScriptUpdater/APIUpdater.NonObsoleteApiUpdaterDetector.exe
[api-updater (non-obsolete-error-filter)] 
----------------------------------
jit/startup time      : 156,258ms
moved types parse time: 57ms
candidates parse time : 1ms
C# parse time         : 198ms
candidates check time : 48ms
console write time    : 0ms

[api-updater (non-obsolete-error-filter)] 4.6.2021. 00.08.55 : Starting C:/Program Files/Unity/Hub/Editor/2020.3.0f1/Editor/Data/Tools/ScriptUpdater/APIUpdater.NonObsoleteApiUpdaterDetector.exe
[api-updater (non-obsolete-error-filter)] 
----------------------------------
jit/startup time      : 140,631ms
moved types parse time: 59ms
candidates parse time : 1ms
C# parse time         : 238ms
candidates check time : 51ms
console write time    : 0ms

[api-updater (non-obsolete-error-filter)] 4.6.2021. 00.10.50 : Starting C:/Program Files/Unity/Hub/Editor/2020.3.0f1/Editor/Data/Tools/ScriptUpdater/APIUpdater.NonObsoleteApiUpdaterDetector.exe
[api-updater (non-obsolete-error-filter)] 
----------------------------------
jit/startup time      : 156,2641ms
moved types parse time: 59ms
candidates parse time : 1ms
C# parse time         : 198ms
candidates check time : 45ms
console write time    : 0ms

